{
  "destination": "./public",
  "metadata": {
    "title": "My Blog",
    "description": "Built with Metalsmith, hosted by GitLab Pages."
  },
  "plugins": {
    "metalsmith-markdown": {},
    "metalsmith-permalinks": {
      "pattern": ":title"
    },
    "metalsmith-layouts": {
      "engine": "handlebars"
    }
  }
}
